[gd_scene load_steps=2 format=2]

[ext_resource path="res://singletons/EnvironmentManager.gd" type="Script" id=1]

[node name="EnvironmentManager" type="Node"]
script = ExtResource( 1 )

[node name="DirectionalLight" type="DirectionalLight" parent="."]
transform = Transform( 1, 0, 0, 0, -4.37114e-08, 1, 0, -1, -4.37114e-08, 0, 0, 0 )
light_specular = 0.0
shadow_enabled = true
directional_shadow_max_distance = 500.0
