[gd_resource type="GradientTexture" load_steps=2 format=2]

[sub_resource type="Gradient" id=1]
offsets = PoolRealArray( 0, 0.176871, 0.37415, 1 )
colors = PoolColorArray( 1, 0, 0, 1, 1, 0.486328, 0, 1, 1, 0.955078, 0, 1, 1, 1, 1, 1 )

[resource]
gradient = SubResource( 1 )
