[gd_scene load_steps=8 format=2]

[ext_resource path="res://assets/fonts/Button.tres" type="DynamicFont" id=1]
[ext_resource path="res://cars/Label3D.gd" type="Script" id=2]

[sub_resource type="Shader" id=1]
code = "shader_type canvas_item;

uniform vec4 color:hint_color;
void fragment(){
	vec4 screen = textureLod(SCREEN_TEXTURE, SCREEN_UV, 0.0);
	screen = clamp(screen, 0.0, 1.0);
	COLOR = mix(screen, color, color.a);
}"

[sub_resource type="ShaderMaterial" id=2]
shader = SubResource( 1 )
shader_param/color = Color( 0, 0, 0, 0.94902 )

[sub_resource type="ViewportTexture" id=3]
viewport_path = NodePath("Viewport")

[sub_resource type="SpatialMaterial" id=4]
resource_local_to_scene = true
flags_transparent = true
flags_unshaded = true
flags_do_not_receive_shadows = true
flags_disable_ambient_light = true
params_billboard_mode = 1
albedo_texture = SubResource( 3 )

[sub_resource type="QuadMesh" id=5]
resource_local_to_scene = true
material = SubResource( 4 )
size = Vector2( 3, 0.5 )

[node name="Label3D" type="Spatial"]
script = ExtResource( 2 )

[node name="Viewport" type="Viewport" parent="."]
size = Vector2( 300, 50 )
transparent_bg = true
render_target_v_flip = true

[node name="ColorRect" type="ColorRect" parent="Viewport"]
material = SubResource( 2 )
margin_right = 300.0
margin_bottom = 50.0
mouse_filter = 2
size_flags_vertical = 4
color = Color( 0, 0, 0, 0.498039 )
__meta__ = {
"_editor_description_": ""
}

[node name="Label" type="Label" parent="Viewport"]
margin_right = 300.0
margin_bottom = 50.0
custom_fonts/font = ExtResource( 1 )
text = "PLAYER"
align = 1
valign = 1

[node name="MeshInstance" type="MeshInstance" parent="."]
mesh = SubResource( 5 )
material/0 = null
